<?xml version="1.0" encoding="UTF-8" standalone="no"?>
<!-- Created with Inkscape (http://www.inkscape.org/) -->

<svg
   version="1.0"
   width="400"
   height="400"
   id="svg2"
   sodipodi:docname="Moon_phase_1.svg"
   inkscape:version="1.2.1 (9c6d41e410, 2022-07-14)"
   xmlns:inkscape="http://www.inkscape.org/namespaces/inkscape"
   xmlns:sodipodi="http://sodipodi.sourceforge.net/DTD/sodipodi-0.dtd"
   xmlns="http://www.w3.org/2000/svg"
   xmlns:svg="http://www.w3.org/2000/svg">
  <sodipodi:namedview
     id="namedview10"
     pagecolor="#ffffff"
     bordercolor="#000000"
     borderopacity="0.25"
     inkscape:showpageshadow="2"
     inkscape:pageopacity="0.0"
     inkscape:pagecheckerboard="0"
     inkscape:deskcolor="#d1d1d1"
     showgrid="false"
     inkscape:zoom="2.0925"
     inkscape:cx="199.76105"
     inkscape:cy="200.23895"
     inkscape:window-width="1920"
     inkscape:window-height="1017"
     inkscape:window-x="1432"
     inkscape:window-y="-8"
     inkscape:window-maximized="1"
     inkscape:current-layer="svg2" />
  <defs
     id="defs4" />
  <g
     id="layer2">
    <path
       d="M 749.07161 200.5305 A 168.70027 168.70027 0 1 1  411.67107,200.5305 A 168.70027 168.70027 0 1 1  749.07161 200.5305 z"
       transform="translate(-380.37134,-0.5305023)"
       style="fill:#000000;fill-opacity:1;stroke:none;stroke-width:3.54330707;stroke-miterlimit:4;stroke-dasharray:none;stroke-opacity:1"
       id="path6166" />
  </g>
  <g
     id="layer3">
    <path
       d="M 199.862,368.70045 C 293.03269,368.70045 368.56242,293.17073 368.56242,200 C 368.56242,106.8293 293.03269,31.299555 199.862,31.299555 C 246.44791,31.299555 284.21221,106.8293 284.21221,200 C 284.21221,293.17073 246.44791,368.70045 199.862,368.70045 z "
       style="fill:#ffffff;fill-opacity:1;stroke:none"
       id="path7307" />
  </g>
</svg>
